Device	ABCStar		
Rotation	90		
1	0	-8087	1
2	0	0	2
3	0	8087	3
4	0	16174	4
5	10800	48522	5
6	10800	40435	6
7	10800	32348	7
8	10800	24261	8
9	10800	16174	9
10	10800	8087	10
11	10800	0	11
12	10800	-8087	12
13	10800	-16174	13
14	10800	-24261	14
15	10800	-32348	15
16	17920	-40435	16
17	17920	-32348	17
18	17920	-24261	18
19	17920	-16174	19
20	17920	-8087	20
21	17920	0	21
22	17920	8087	22
23	17920	16174	23
24	17920	24261	24
25	17920	32348	25
26	17920	40435	26
27	17920	48522	27
28	17920	56609	28
29	17920	64696	29
30	28720	72783	30
31	28720	64696	31
32	28720	56609	32
33	28720	48522	33
34	28720	40435	34
35	28720	32348	35
36	28720	24261	36
37	28720	16174	37
38	28720	8087	38
39	28720	0	39
40	28720	-8087	40
41	28720	-16174	41
42	28720	-24261	42
43	28720	-32348	43
44	28720	-40435	44
45	28720	-48522	45
46	28720	-56609	46
47	35840	-56609	47
48	35840	-48522	48
49	35840	-40435	49
50	35840	-32348	50
51	35840	-24261	51
52	35840	-16174	52
53	35840	-8087	53
54	35840	0	54
55	35840	8087	55
56	35840	16174	56
57	35840	24261	57
58	35840	32348	58
59	35840	40435	59
60	35840	48522	60
61	35840	56609	61
62	35840	64696	62
63	35840	72783	63
64	35840	80870	64
65	46640	88957	65
66	46640	80870	66
67	46640	72783	67
68	46640	64696	68
69	46640	56609	69
70	46640	48522	70
71	46640	40435	71
72	46640	32348	72
73	46640	24261	73
74	46640	16174	74
75	46640	8087	75
76	46640	0	76
77	46640	-8087	77
78	46640	-16174	78
79	46640	-24261	79
80	46640	-32348	80
81	46640	-40435	81
82	46640	-48522	82
83	46640	-56609	83
84	46640	-64696	84
85	53760	-72783	85
86	53760	-64696	86
87	53760	-56609	87
88	53760	-48522	88
89	53760	-40435	89
90	53760	-32348	90
91	53760	-24261	91
92	53760	-16174	92
93	53760	-8087	93
94	53760	0	94
95	53760	8087	95
96	53760	16174	96
97	53760	24261	97
98	53760	32348	98
99	53760	40435	99
100	53760	48522	100
101	53760	56609	101
102	53760	64696	102
103	53760	72783	103
104	53760	80870	104
105	53760	88957	105
106	64560	97044	106
107	64560	88957	107
108	64560	80870	108
109	64560	72783	109
110	64560	64696	110
111	64560	56609	111
112	64560	48522	112
113	64560	40435	113
114	64560	32348	114
115	64560	24261	115
116	64560	16174	116
117	64560	8087	117
118	64560	0	118
119	64560	-8087	119
120	64560	-16174	120
121	64560	-24261	121
122	64560	-32348	122
123	64560	-40435	123
124	64560	-48522	124
125	64560	-56609	125
126	64560	-64696	126
127	64560	-72783	127
128	71680	-80870	128
129	71680	-72783	129
130	71680	-64696	130
131	71680	-56609	131
132	71680	-48522	132
133	71680	-40435	133
134	71680	-32348	134
135	71680	-24261	135
136	71680	-16174	136
137	71680	-8087	137
138	71680	0	138
139	71680	8087	139
140	71680	16174	140
141	71680	24261	141
142	71680	32348	142
143	71680	40435	143
144	71680	48522	144
145	71680	56609	145
146	71680	64696	146
147	71680	72783	147
148	71680	80870	148
149	71680	88957	149
150	71680	97044	150
151	82480	97044	151
152	82480	88957	152
153	82480	80870	153
154	82480	72783	154
155	82480	64696	155
156	82480	56609	156
157	82480	48522	157
158	82480	40435	158
159	82480	32348	159
160	82480	24261	160
161	82480	16174	161
162	82480	8087	162
163	82480	0	163
164	82480	-8087	164
165	82480	-16174	165
166	82480	-24261	166
167	82480	-32348	167
168	82480	-40435	168
169	82480	-48522	169
170	82480	-56609	170
171	82480	-64696	171
172	82480	-72783	172
173	82480	-80870	173
174	89600	-80870	174
175	89600	-72783	175
176	89600	-64696	176
177	89600	-56609	177
178	89600	-48522	178
179	89600	-40435	179
180	89600	-32348	180
181	89600	-24261	181
182	89600	-16174	182
183	89600	-8087	183
184	89600	0	184
185	89600	8087	185
186	89600	16174	186
187	89600	24261	187
188	89600	32348	188
189	89600	40435	189
190	89600	48522	190
191	89600	56609	191
192	89600	64696	192
193	89600	72783	193
194	89600	80870	194
195	89600	88957	195
196	89600	97044	196
197	100400	97044	197
198	100400	88957	198
199	100400	80870	199
200	100400	72783	200
201	100400	64696	201
202	100400	56609	202
203	100400	48522	203
204	100400	40435	204
205	100400	32348	205
206	100400	24261	206
207	100400	16174	207
208	100400	8087	208
209	100400	0	209
210	100400	-8087	210
211	100400	-16174	211
212	100400	-24261	212
213	100400	-32348	213
214	100400	-40435	214
215	100400	-48522	215
216	100400	-56609	216
217	100400	-64696	217
218	100400	-72783	218
219	100400	-80870	219
220	107520	-80870	220
221	107520	-72783	221
222	107520	-64696	222
223	107520	-56609	223
224	107520	-48522	224
225	107520	-40435	225
226	107520	-32348	226
227	107520	-24261	227
228	107520	-16174	228
229	107520	-8087	229
230	107520	0	230
231	107520	8087	231
232	107520	16174	232
233	107520	24261	233
234	107520	32348	234
235	107520	40435	235
236	107520	48522	236
237	107520	56609	237
238	107520	64696	238
239	107520	72783	239
240	107520	80870	240
241	107520	88957	241
242	107520	97044	242
243	118320	97044	243
244	118320	88957	244
245	118320	80870	245
246	118320	72783	246
247	118320	64696	247
248	118320	56609	248
249	118320	48522	249
250	118320	40435	250
251	118320	32348	251
252	118320	24261	252
253	118320	16174	253
254	118320	8087	254
255	118320	0	255
256	118320	-8087	256
257	118320	-16174	257
258	118320	-24261	258
259	118320	-32348	259
260	118320	-40435	260
261	118320	-48522	261
262	118320	-56609	262
263	118320	-64696	263
264	118320	-72783	264
265	125440	-72783	265
266	125440	-64696	266
267	125440	-56609	267
268	125440	-48522	268
269	125440	-40435	269
270	125440	-32348	270
271	125440	-24261	271
272	125440	-16174	272
273	125440	-8087	273
274	125440	0	274
275	125440	8087	275
276	125440	16174	276
277	125440	24261	277
278	125440	32348	278
279	125440	40435	279
280	125440	48522	280
281	125440	56609	281
282	125440	64696	282
283	125440	72783	283
284	125440	80870	284
285	125440	88957	285
286	125440	97044	286
287	136240	88957	287
288	136240	80870	288
289	136240	72783	289
290	136240	64696	290
291	136240	56609	291
292	136240	48522	292
293	136240	40435	293
294	136240	32348	294
295	136240	24261	295
296	136240	16174	296
297	136240	8087	297
298	136240	0	298
299	136240	-8087	299
300	136240	-16174	300
301	136240	-24261	301
302	136240	-32348	302
303	136240	-40435	303
304	136240	-48522	304
305	136240	-56609	305
306	136240	-64696	306
307	143360	-64696	307
308	143360	-56609	308
309	143360	-48522	309
310	143360	-40435	310
311	143360	-32348	311
312	143360	-24261	312
313	143360	-16174	313
314	143360	-8087	314
315	143360	0	315
316	143360	8087	316
317	143360	16174	317
318	143360	24261	318
319	143360	32348	319
320	143360	40435	320
321	143360	48522	321
322	143360	56609	322
323	143360	64696	323
324	143360	72783	324
325	143360	80870	325
326	154160	72783	326
327	154160	64696	327
328	154160	56609	328
329	154160	48522	329
330	154160	40435	330
331	154160	32348	331
332	154160	24261	332
333	154160	16174	333
334	154160	8087	334
335	154160	0	335
336	154160	-8087	336
337	154160	-16174	337
338	154160	-24261	338
339	154160	-32348	339
340	154160	-40435	340
341	154160	-48522	341
342	154160	-56609	342
343	161280	-48522	343
344	161280	-40435	344
345	161280	-32348	345
346	161280	-24261	346
347	161280	-16174	347
348	161280	-8087	348
349	161280	0	349
350	161280	8087	350
351	161280	16174	351
352	161280	24261	352
353	161280	32348	353
354	161280	40435	354
355	161280	48522	355
356	161280	56609	356
357	161280	64696	357
358	161280	72783	358
359	172080	56609	359
360	172080	48522	360
361	172080	40435	361
362	172080	32348	362
363	172080	24261	363
364	172080	16174	364
365	172080	8087	365
366	172080	0	366
367	172080	-8087	367
368	172080	-16174	368
369	172080	-24261	369
370	172080	-32348	370
371	179200	-16174	371
372	179200	-8087	372
373	179200	0	373
374	179200	8087	374
375	179200	16174	375
376	179200	24261	376
377	179200	32348	377
378	179200	40435	378
