Device	ABC130
Rotation	-1
1	0	0	0
2	8160	0	1
3	20500	0	0
4	28660	0	1
5	41000	0	0
6	49160	0	1
7	61500	0	0
8	69660	0	1
9	102500	-19500	0
10	90160	-19500	1
11	82000	-19500	0
12	69660	-19500	1
13	61500	-19500	0
14	49160	-19500	1
15	41000	-19500	0
16	28660	-19500	1
17	20500	-19500	0
18	8160	-19500	1
19	0	-19500	0
20	-12340	-19500	1
21	-20500	-19500	0
22	-41000	-39000	0
23	-32840	-39000	1
24	-20500	-39000	0
25	-12340	-39000	1
26	0	-39000	0
27	8160	-39000	1
28	20500	-39000	0
29	28660	-39000	1
30	41000	-39000	0
31	49160	-39000	1
32	61500	-39000	0
33	69660	-39000	1
34	82000	-39000	0
35	90160	-39000	1
36	102500	-39000	0
37	110660	-39000	1
38	123000	-58500	0
39	110660	-58500	1
40	102500	-58500	0
41	90160	-58500	1
42	82000	-58500	0
43	69660	-58500	1
44	61500	-58500	0
45	49160	-58500	1
46	41000	-58500	0
47	28660	-58500	1
48	20500	-58500	0
49	8160	-58500	1
50	0	-58500	0
51	-12340	-58500	1
52	-20500	-58500	0
53	-32840	-58500	1
54	-41000	-58500	0
55	-53340	-58500	1
56	-53340	-78000	1
57	-41000	-78000	0
58	-32840	-78000	1
59	-20500	-78000	0
60	-12340	-78000	1
61	0	-78000	0
62	8160	-78000	1
63	20500	-78000	0
64	28660	-78000	1
65	41000	-78000	0
66	49160	-78000	1
67	61500	-78000	0
68	69660	-78000	1
69	82000	-78000	0
70	90160	-78000	1
71	102500	-78000	0
72	110660	-78000	1
73	123000	-78000	0
74	123000	-97500	0
75	110660	-97500	1
76	102500	-97500	0
77	90160	-97500	1
78	82000	-97500	0
79	69660	-97500	1
80	61500	-97500	0
81	49160	-97500	1
82	41000	-97500	0
83	28660	-97500	1
84	20500	-97500	0
85	8160	-97500	1
86	0	-97500	0
87	-12340	-97500	1
88	-20500	-97500	0
89	-32840	-97500	1
90	-41000	-97500	0
91	-53340	-97500	1
92	-41000	-117000	0
93	-32840	-117000	1
94	-20500	-117000	0
95	-12340	-117000	1
96	0	-117000	0
97	8160	-117000	1
98	20500	-117000	0
99	28660	-117000	1
100	41000	-117000	0
101	49160	-117000	1
102	61500	-117000	0
103	69660	-117000	1
104	82000	-117000	0
105	90160	-117000	1
106	102500	-117000	0
107	110660	-117000	1
108	123000	-117000	0
109	110660	-136500	1
110	102500	-136500	0
111	90160	-136500	1
112	82000	-136500	0
113	69660	-136500	1
114	61500	-136500	0
115	49160	-136500	1
116	41000	-136500	0
117	28660	-136500	1
118	20500	-136500	0
119	8160	-136500	1
120	0	-136500	0
121	-12340	-136500	1
122	-20500	-136500	0
123	-32840	-136500	1
124	-20500	-156000	0
125	-12340	-156000	1
126	0	-156000	0
127	8160	-156000	1
128	20500	-156000	0
129	28660	-156000	1
130	41000	-156000	0
131	49160	-156000	1
132	61500	-156000	0
133	69660	-156000	1
134	82000	-156000	0
135	90160	-156000	1
