Device	AMAC2
Rotation	90
1	0	0	0157
2	0	16174	0167
3	0	32348	0177
4	0	48522	0187
5	0	64696	0197
6	17920	97044	02B7
7	17920	80870	02A7
8	17920	64696	0297
9	17920	48522	0287
10	17920	32348	0277
11	17920	16174	0267
12	17920	0	0257
13	17920	-16174	0247
14	35840	-32348	0337
15	35840	-16174	0347
16	35840	0	0357
17	35840	16174	0367
18	35840	32348	0377
19	35840	48522	0387
20	35840	64696	0397
21	35840	80870	03A7
22	35840	97044	03B7
23	53760	113218	04C7
24	53760	97044	04B7
25	53760	80870	04A7
26	53760	64696	0497
27	53760	48522	0487
28	53760	32348	0477
29	53760	16174	0467
30	53760	0	0457
31	53760	-16174	0447
32	53760	-32348	0437
33	53760	-48522	0427
34	71680	-48522	0527
35	71680	-32348	0537
36	71680	-16174	0547
37	71680	0	0557
38	71680	16174	0567
39	71680	32348	0577
40	71680	48522	0587
41	71680	64696	0597
42	71680	80870	05A7
43	71680	97044	05B7
44	71680	113218	05C7
45	89600	113218	06C7
46	89600	97044	06B7
47	89600	80870	06A7
48	89600	64696	0697
49	89600	48522	0687
50	89600	32348	0677
51	89600	16174	0667
52	89600	0	0657
53	89600	-16174	0647
54	89600	-32348	0637
55	89600	-48522	0627
56	107520	-48522	0727
57	107520	-32348	0737
58	107520	-16174	0747
59	107520	0	0757
60	107520	16174	0767
61	107520	32348	0777
62	107520	48522	0787
63	107520	64696	0797
64	107520	80870	07A7
65	107520	97044	07B7
66	107520	113218	07C7
67	125440	113218	08C7
68	125440	97044	08B7
69	125440	80870	08A7
70	125440	64696	0897
71	125440	48522	0887
72	125440	32348	0877
73	125440	16174	0867
74	125440	0	0857
75	125440	-16174	0847
76	125440	-32348	0837
77	125440	-48522	0827
78	143360	-32348	0937
79	143360	-16174	0947
80	143360	0	0957
81	143360	16174	0967
82	143360	32348	0977
83	143360	48522	0987
84	143360	64696	0997
85	143360	80870	09A7
86	143360	97044	09B7
87	161280	80870	0AA7
88	161280	64696	0A97
89	161280	48522	0A87
90	161280	32348	0A77
91	161280	16174	0A67
92	161280	0	0A57
93	161280	-16174	0A47
94	179200	16174	0B67
95	179200	32348	0B77
96	179200	48522	0B87
