{
 "signals": {"COM": "0x5011", "L0": "0x422", "L1": "0x844"},
 "rate": 40,
 "data": [
   {"idle": 5},
   {"remark": "L0ID reset so we know how to ask for data (a6)"},
   {"raw": {"COM": "1010011"}},
   {"idle": 25},

   {"label": "CAL_LOOP"},

   {"remark": "Write configuration bit 0 of register 0"},
   {"raw": {"COM": "1011 1110 1111 1111 1100 0000 0100"}},
   {"raw": {"COM": "0000 0000 0000 0000 0000 0000 0000 01"}},
   {"remark": "The requisite delay"},
   {"idle": 36},
   {"remark": "Finally the L0"},
   {"raw": {"L0": "10"}},

   {"loop": {"to": "CAL_LOOP", "count": 16}},

   {"remark": "NB Had extra 4x0 after cal 4"},

   {"remark": "Now 16 L1s"},
   {"raw": {"L1": "1100000000000"}},
   {"raw": {"L1": "1100000000100"}},
   {"raw": {"L1": "1100000001000"}},
   {"raw": {"L1": "1100000001100"}},
   {"raw": {"L1": "1100000010000"}},
   {"raw": {"L1": "1100000010100"}},
   {"raw": {"L1": "1100000011000"}},
   {"raw": {"L1": "1100000011100"}},
   {"raw": {"L1": "1100000100000"}},
   {"raw": {"L1": "1100000100100"}},
   {"raw": {"L1": "1100000101000"}},
   {"raw": {"L1": "1100000101100"}},
   {"raw": {"L1": "1100000110000"}},
   {"raw": {"L1": "1100000110100"}},
   {"raw": {"L1": "1100000111000"}},
   {"raw": {"L1": "1100000111100"}}
  ]
}
