{
 "signals": {"Fast": "0x2000", "Command": "0x1000", "L0A": "0x400", "ExtTrigger": "0x8000"},
 "rate": 40,
 "offset": 1,
 "data": [
   {"remark": "Counter reset, then start"},
   {"raw": {"Fast": "001010 00 0111"}},
   {"raw": {"Fast": "001010 00 1000"}},
   {"idle": 32},

   {"remark": "Some L0As that should be counted"},
   {"raw": {"L0A": "11111111 11111111 11111111"}},
   {"idle": 32},

   {"remark": "Counter stop"},
   {"raw": {"Fast": "001010 00 1001"}},

   {"raw": {"ExtTrigger": "1"}},
   {"remark": "0x2fbf22000000000 // Rd reg 80 to bf     abc=f,  hcc=f"},
   {"raw": {"Command": "010111110 1 1111 1 1111 10000000 0000 0000 0000 0000 0000 0000 0000 0000"}},
   {"raw": {"Command": "010111110 1 1111 1 1111 10000001 0000 0000 0000 0000 0000 0000 0000 0000"}},
   {"raw": {"Command": "010111110 1 1111 1 1111 10000010 0000 0000 0000 0000 0000 0000 0000 0000"}},
   {"raw": {"Command": "010111110 1 1111 1 1111 10000011 0000 0000 0000 0000 0000 0000 0000 0000"}},
   {"raw": {"Command": "010111110 1 1111 1 1111 10000100 0000 0000 0000 0000 0000 0000 0000 0000"}},
   {"raw": {"Command": "010111110 1 1111 1 1111 10000101 0000 0000 0000 0000 0000 0000 0000 0000"}},
   {"raw": {"Command": "010111110 1 1111 1 1111 10000110 0000 0000 0000 0000 0000 0000 0000 0000"}},
   {"raw": {"Command": "010111110 1 1111 1 1111 10000111 0000 0000 0000 0000 0000 0000 0000 0000"}},
   {"raw": {"Command": "010111110 1 1111 1 1111 10001000 0000 0000 0000 0000 0000 0000 0000 0000"}},
   {"raw": {"Command": "010111110 1 1111 1 1111 10001001 0000 0000 0000 0000 0000 0000 0000 0000"}},
   {"raw": {"Command": "010111110 1 1111 1 1111 10001010 0000 0000 0000 0000 0000 0000 0000 0000"}},
   {"raw": {"Command": "010111110 1 1111 1 1111 10001011 0000 0000 0000 0000 0000 0000 0000 0000"}},
   {"raw": {"Command": "010111110 1 1111 1 1111 10001100 0000 0000 0000 0000 0000 0000 0000 0000"}},
   {"raw": {"Command": "010111110 1 1111 1 1111 10001101 0000 0000 0000 0000 0000 0000 0000 0000"}},
   {"raw": {"Command": "010111110 1 1111 1 1111 10001110 0000 0000 0000 0000 0000 0000 0000 0000"}},
   {"raw": {"Command": "010111110 1 1111 1 1111 10001111 0000 0000 0000 0000 0000 0000 0000 0000"}},
   {"idle": 32},
   {"raw": {"Command": "010111110 1 1111 1 1111 10010000 0000 0000 0000 0000 0000 0000 0000 0000"}},
   {"raw": {"Command": "010111110 1 1111 1 1111 10010001 0000 0000 0000 0000 0000 0000 0000 0000"}},
   {"raw": {"Command": "010111110 1 1111 1 1111 10010010 0000 0000 0000 0000 0000 0000 0000 0000"}},
   {"raw": {"Command": "010111110 1 1111 1 1111 10010011 0000 0000 0000 0000 0000 0000 0000 0000"}},
   {"raw": {"Command": "010111110 1 1111 1 1111 10010100 0000 0000 0000 0000 0000 0000 0000 0000"}},
   {"raw": {"Command": "010111110 1 1111 1 1111 10010101 0000 0000 0000 0000 0000 0000 0000 0000"}},
   {"raw": {"Command": "010111110 1 1111 1 1111 10010110 0000 0000 0000 0000 0000 0000 0000 0000"}},
   {"raw": {"Command": "010111110 1 1111 1 1111 10010111 0000 0000 0000 0000 0000 0000 0000 0000"}},
   {"raw": {"Command": "010111110 1 1111 1 1111 10011000 0000 0000 0000 0000 0000 0000 0000 0000"}},
   {"raw": {"Command": "010111110 1 1111 1 1111 10011001 0000 0000 0000 0000 0000 0000 0000 0000"}},
   {"raw": {"Command": "010111110 1 1111 1 1111 10011010 0000 0000 0000 0000 0000 0000 0000 0000"}},
   {"raw": {"Command": "010111110 1 1111 1 1111 10011011 0000 0000 0000 0000 0000 0000 0000 0000"}},
   {"raw": {"Command": "010111110 1 1111 1 1111 10011100 0000 0000 0000 0000 0000 0000 0000 0000"}},
   {"raw": {"Command": "010111110 1 1111 1 1111 10011101 0000 0000 0000 0000 0000 0000 0000 0000"}},
   {"raw": {"Command": "010111110 1 1111 1 1111 10011110 0000 0000 0000 0000 0000 0000 0000 0000"}},
   {"raw": {"Command": "010111110 1 1111 1 1111 10011111 0000 0000 0000 0000 0000 0000 0000 0000"}},
   {"idle": 32},
   {"raw": {"Command": "010111110 1 1111 1 1111 10100000 0000 0000 0000 0000 0000 0000 0000 0000"}},
   {"raw": {"Command": "010111110 1 1111 1 1111 10100001 0000 0000 0000 0000 0000 0000 0000 0000"}},
   {"raw": {"Command": "010111110 1 1111 1 1111 10100010 0000 0000 0000 0000 0000 0000 0000 0000"}},
   {"raw": {"Command": "010111110 1 1111 1 1111 10100011 0000 0000 0000 0000 0000 0000 0000 0000"}},
   {"raw": {"Command": "010111110 1 1111 1 1111 10100100 0000 0000 0000 0000 0000 0000 0000 0000"}},
   {"raw": {"Command": "010111110 1 1111 1 1111 10100101 0000 0000 0000 0000 0000 0000 0000 0000"}},
   {"raw": {"Command": "010111110 1 1111 1 1111 10100110 0000 0000 0000 0000 0000 0000 0000 0000"}},
   {"raw": {"Command": "010111110 1 1111 1 1111 10100111 0000 0000 0000 0000 0000 0000 0000 0000"}},
   {"raw": {"Command": "010111110 1 1111 1 1111 10101000 0000 0000 0000 0000 0000 0000 0000 0000"}},
   {"raw": {"Command": "010111110 1 1111 1 1111 10101001 0000 0000 0000 0000 0000 0000 0000 0000"}},
   {"raw": {"Command": "010111110 1 1111 1 1111 10101010 0000 0000 0000 0000 0000 0000 0000 0000"}},
   {"raw": {"Command": "010111110 1 1111 1 1111 10101011 0000 0000 0000 0000 0000 0000 0000 0000"}},
   {"raw": {"Command": "010111110 1 1111 1 1111 10101100 0000 0000 0000 0000 0000 0000 0000 0000"}},
   {"raw": {"Command": "010111110 1 1111 1 1111 10101101 0000 0000 0000 0000 0000 0000 0000 0000"}},
   {"raw": {"Command": "010111110 1 1111 1 1111 10101110 0000 0000 0000 0000 0000 0000 0000 0000"}},
   {"raw": {"Command": "010111110 1 1111 1 1111 10101111 0000 0000 0000 0000 0000 0000 0000 0000"}},
   {"idle": 32},
   {"raw": {"Command": "010111110 1 1111 1 1111 10110000 0000 0000 0000 0000 0000 0000 0000 0000"}},
   {"raw": {"Command": "010111110 1 1111 1 1111 10110001 0000 0000 0000 0000 0000 0000 0000 0000"}},
   {"raw": {"Command": "010111110 1 1111 1 1111 10110010 0000 0000 0000 0000 0000 0000 0000 0000"}},
   {"raw": {"Command": "010111110 1 1111 1 1111 10110011 0000 0000 0000 0000 0000 0000 0000 0000"}},
   {"raw": {"Command": "010111110 1 1111 1 1111 10110100 0000 0000 0000 0000 0000 0000 0000 0000"}},
   {"raw": {"Command": "010111110 1 1111 1 1111 10110101 0000 0000 0000 0000 0000 0000 0000 0000"}},
   {"raw": {"Command": "010111110 1 1111 1 1111 10110110 0000 0000 0000 0000 0000 0000 0000 0000"}},
   {"raw": {"Command": "010111110 1 1111 1 1111 10110111 0000 0000 0000 0000 0000 0000 0000 0000"}},
   {"raw": {"Command": "010111110 1 1111 1 1111 10111000 0000 0000 0000 0000 0000 0000 0000 0000"}},
   {"raw": {"Command": "010111110 1 1111 1 1111 10111001 0000 0000 0000 0000 0000 0000 0000 0000"}},
   {"raw": {"Command": "010111110 1 1111 1 1111 10111010 0000 0000 0000 0000 0000 0000 0000 0000"}},
   {"raw": {"Command": "010111110 1 1111 1 1111 10111011 0000 0000 0000 0000 0000 0000 0000 0000"}},
   {"raw": {"Command": "010111110 1 1111 1 1111 10111100 0000 0000 0000 0000 0000 0000 0000 0000"}},
   {"raw": {"Command": "010111110 1 1111 1 1111 10111101 0000 0000 0000 0000 0000 0000 0000 0000"}},
   {"raw": {"Command": "010111110 1 1111 1 1111 10111110 0000 0000 0000 0000 0000 0000 0000 0000"}},
   {"raw": {"Command": "010111110 1 1111 1 1111 10111111 0000 0000 0000 0000 0000 0000 0000 0000"}},

   {"remark": "The end without a comma"}
  ]
}
